Sponge,Condition,Time,Contractions
1,Control,T1,5
2,Control,T1,2
3,Control,T1,4
4,Treatment,T1,7
5,Treatment,T1,3
6,Treatment,T1,1
7,Treatment,T1,4
1,Control,T2,8
2,Control,T2,4
3,Control,T2,4
4,Treatment,T2,5
5,Treatment,T2,10
6,Treatment,T2,4
7,Treatment,T2,5
1,Control,T3,6
2,Control,T3,3
3,Control,T3,4
4,Treatment,T3,0
5,Treatment,T3,5
6,Treatment,T3,2
7,Treatment,T3,1
1,Control,T4,6
2,Control,T4,3
3,Control,T4,8
4,Treatment,T4,0
5,Treatment,T4,1
6,Treatment,T4,0
7,Treatment,T4,0
