Experiment	Start Date	AVG. O2 (% AS)	T @ AVG. O2 (hr)	No. Contractions	Contractions/hr	Contractions/d
Control 1	23/2/15	96.66	14.77	5	0.34	8.13
Control 1	24/2/15	96.50	23.73	8	0.34	8.09
Control 1	25/2/15	96.78	23.70	6	0.25	6.08
Control 1	26/2/15	94.69	23.35	6	0.26	6.17
Control 2	10/3/2015	100.00	21.57	4	0.19	4.45
Control 2	12/3/2015	93.81	28.70	3	0.10	2.51
Control 3	21/3/15	99.96	24.30	8	0.33	7.90
Control 3	22/3/15	99.73	24.08	8	0.33	7.97
Experiment 2	17/2/15	10.79	19.61	4	0.20	4.90
Experiment 2	18/2/15	1.56	16.36	0	0.00	0.00
Experiment 3	2/3/2015	8.34	13.95	2	0.14	3.44
Experiment 3	3/3/2015	9.68	23.68	10	0.42	10.14
Experiment 3	4/3/2015	4.99	19.89	4	0.20	4.83
Experiment 3	5/3/2015	1.84	5.71	0	0.00	0.00
Experiment 4	15/3/15	9.67	23.72	4	0.17	4.05
Experiment 4	16/3/15	4.11	17.55	2	0.11	2.74
Experiment 4	17/3/15	1.56	19.43	0	0.00	0.00
Experiment 5	24/3/15	10.17	19.15	3	0.16	3.76
Experiment 5	25/3/15	10.26	21.50	5	0.23	5.58
Experiment 5	26/3/15	1.86	15.42	0	0.00	0.00
Experiment 5	27/3/15	0.43	19.98	0	0.00	0.00
